<?xml version="1.0" encoding="UTF-8" standalone="no"?>
<!-- Created with Inkscape (http://www.inkscape.org/) -->

<svg
   xmlns:dc="http://purl.org/dc/elements/1.1/"
   xmlns:cc="http://creativecommons.org/ns#"
   xmlns:rdf="http://www.w3.org/1999/02/22-rdf-syntax-ns#"
   xmlns:svg="http://www.w3.org/2000/svg"
   xmlns="http://www.w3.org/2000/svg"
   xmlns:sodipodi="http://sodipodi.sourceforge.net/DTD/sodipodi-0.dtd"
   xmlns:inkscape="http://www.inkscape.org/namespaces/inkscape"
   width="200mm"
   height="260mm"
   viewBox="0 0 200 260"
   version="1.1"
   id="svg8"
   inkscape:version="0.92.5 (2060ec1f9f, 2020-04-08)"
   sodipodi:docname="text_foldss (3rd copy).svg">
  <defs
     id="defs2" />
  <sodipodi:namedview
     id="base"
     pagecolor="#ffffff"
     bordercolor="#666666"
     borderopacity="1.0"
     inkscape:pageopacity="0.0"
     inkscape:pageshadow="2"
     inkscape:zoom="0.39176387"
     inkscape:cx="9.6047242"
     inkscape:cy="631.03"
     inkscape:document-units="mm"
     inkscape:current-layer="layer1"
     showgrid="true"
     inkscape:window-width="1920"
     inkscape:window-height="948"
     inkscape:window-x="1920"
     inkscape:window-y="27"
     inkscape:window-maximized="1"
     objecttolerance="1"
     guidetolerance="1" />
  <metadata
     id="metadata5">
    <rdf:RDF>
      <cc:Work
         rdf:about="">
        <dc:format>image/svg+xml</dc:format>
        <dc:type
           rdf:resource="http://purl.org/dc/dcmitype/StillImage" />
        <dc:title />
      </cc:Work>
    </rdf:RDF>
  </metadata>
  <g
     inkscape:label="Layer 1"
     inkscape:groupmode="layer"
     id="layer1"
     transform="translate(0,-37)">
    <path
       style="fill:#333333;fill-opacity:1;stroke:none;stroke-width:21.3723259;stroke-miterlimit:4;stroke-dasharray:none;stroke-opacity:1"
       d="m 6.8848357,42.589076 c -1.5355,0 -2.7719195,0.8421 -2.7719195,1.88774 V 293.48384 c 0,1.04564 1.2364195,1.88722 2.7719195,1.88722 H 196.67272 c 1.5355,0 2.77193,-0.84158 2.77193,-1.88722 V 94.762116 l -59.85216,-52.17304 z"
       id="rect815-7"
       inkscape:connector-curvature="0" />
    <path
       style="fill:#e9c6af;fill-opacity:1;stroke:none;stroke-width:21.3723259;stroke-miterlimit:4;stroke-dasharray:none;stroke-opacity:1"
       d="m 3.7183348,37.269312 c -1.5355,0 -2.77140998,0.8421 -2.77140998,1.88774 V 288.16408 c 0,1.04564 1.23590998,1.88722 2.77140998,1.88722 H 193.50675 c 1.5355,0 2.77141,-0.84158 2.77141,-1.88722 V 93.472602 l -64.47617,-56.20329 z"
       id="rect815"
       inkscape:connector-curvature="0" />
    <path
       style="fill:#d38d5f;fill-opacity:1;stroke:none;stroke-width:1.70826125;stroke-miterlimit:4;stroke-dasharray:none;stroke-opacity:1"
       d="m 132.95222,39.595466 v 55.44139 h 63.6017 z"
       id="rect4951-3"
       inkscape:connector-curvature="0" />
    <path
       id="path819"
       d="m -53.207007,89.829828 c -1.57766,-6.33113 -4.56907,-11.10508 -10.94118,-11.10508 h -8.21612 v 9.71183 c 0,7.53998 -6.3926,13.891592 -13.68671,13.891592 h -21.882353 c -5.98282,0 -10.94118,5.12227 -10.94118,11.12558 v 20.85789 c 0,5.94184 5.16326,9.42498 10.94118,11.12558 6.92531,2.02842 13.584273,2.39722 21.882353,0 5.51156,-1.59815 10.94118,-4.81493 10.94118,-11.12558 v -8.33905 h -21.86187 v -2.78653 h 32.82352 c 6.37211,0 8.72835,-4.44612 10.94118,-11.10508 2.29477,-6.86384 2.19233,-13.461332 0,-22.251152 z m -31.47125,41.695302 c 2.2743,0 4.11831,1.8645 4.11831,4.15928 0,2.31527 -1.84401,4.17978 -4.11831,4.17978 -2.25379,0 -4.1183,-1.885 -4.1183,-4.17978 0.0205,-2.31526 1.86451,-4.15928 4.1183,-4.15928 z M -108.93734,99.582628 h 21.882353 c 6.08526,0 10.94118,-5.01982 10.94118,-11.12557 v -20.87838 c 0,-5.94183 -4.99934,-10.38797 -10.94118,-11.39193 -7.3351,-1.20886 -15.305353,-1.1474 -21.882353,0.0205 -9.26107,1.63913 -10.94117,5.0608 -10.94117,11.39193 v 8.33906 h 21.902838 v 2.78652 h -30.118968 c -6.3721,0 -11.94514,3.83146 -13.68671,11.10508 -2.00793,8.33906 -2.08989,13.543292 0,22.251152 1.55717,6.47455 5.2657,11.10509 11.6378,11.10509 h 7.5195 v -9.99871 c 0,-7.23264 6.24917,-13.604762 13.68671,-13.604762 z m -1.37277,-29.21743 c -2.27428,0 -4.1183,-1.86451 -4.1183,-4.15929 0.0205,-2.31527 1.84402,-4.17978 4.1183,-4.17978 2.2538,0 4.11831,1.885 4.11831,4.17978 0,2.29478 -1.84402,4.15929 -4.11831,4.15929 z"
       inkscape:connector-curvature="0"
       style="fill:#4d4d4d;fill-opacity:1;stroke-width:0.20489089" />
    <text
       xml:space="preserve"
       style="font-style:normal;font-variant:normal;font-weight:normal;font-stretch:normal;font-size:103.2658844px;line-height:1.25;font-family:AnjaliOldLipi;-inkscape-font-specification:AnjaliOldLipi;letter-spacing:0px;word-spacing:0px;fill:#4d4d4d;fill-opacity:1;stroke:none;stroke-width:2.58164716;"
       x="63.422173"
       y="215.07323"
       id="text821"><tspan
         sodipodi:role="line"
         id="tspan819"
         x="63.422173"
         y="215.07323"
         style="font-style:normal;font-variant:normal;font-weight:normal;font-stretch:normal;font-family:AnjaliOldLipi;-inkscape-font-specification:AnjaliOldLipi;fill:#4d4d4d;fill-opacity:1;stroke-width:2.58164716;">C</tspan></text>
  </g>
</svg>
