<?xml version="1.0" encoding="UTF-8" standalone="no"?>
<!-- Created with Inkscape (http://www.inkscape.org/) -->

<svg
   xmlns:dc="http://purl.org/dc/elements/1.1/"
   xmlns:cc="http://creativecommons.org/ns#"
   xmlns:rdf="http://www.w3.org/1999/02/22-rdf-syntax-ns#"
   xmlns:svg="http://www.w3.org/2000/svg"
   xmlns="http://www.w3.org/2000/svg"
   xmlns:sodipodi="http://sodipodi.sourceforge.net/DTD/sodipodi-0.dtd"
   xmlns:inkscape="http://www.inkscape.org/namespaces/inkscape"
   width="200mm"
   height="260mm"
   viewBox="0 0 200 260"
   version="1.1"
   id="svg8"
   inkscape:version="0.92.5 (2060ec1f9f, 2020-04-08)"
   sodipodi:docname="file_audio.svg">
  <defs
     id="defs2" />
  <sodipodi:namedview
     id="base"
     pagecolor="#ffffff"
     bordercolor="#666666"
     borderopacity="1.0"
     inkscape:pageopacity="0.0"
     inkscape:pageshadow="2"
     inkscape:zoom="0.58616185"
     inkscape:cx="511.6898"
     inkscape:cy="555.26295"
     inkscape:document-units="mm"
     inkscape:current-layer="layer1"
     showgrid="true"
     inkscape:window-width="1920"
     inkscape:window-height="948"
     inkscape:window-x="1920"
     inkscape:window-y="27"
     inkscape:window-maximized="1"
     objecttolerance="1"
     guidetolerance="1" />
  <metadata
     id="metadata5">
    <rdf:RDF>
      <cc:Work
         rdf:about="">
        <dc:format>image/svg+xml</dc:format>
        <dc:type
           rdf:resource="http://purl.org/dc/dcmitype/StillImage" />
        <dc:title />
      </cc:Work>
    </rdf:RDF>
  </metadata>
  <g
     inkscape:label="Layer 1"
     inkscape:groupmode="layer"
     id="layer1"
     transform="translate(0,-37)">
    <rect
       style="fill:#333333;fill-opacity:1;stroke:none;stroke-width:21.3723259;stroke-miterlimit:4;stroke-dasharray:none;stroke-opacity:1"
       id="rect815-7"
       width="195.33156"
       height="252.782"
       x="5.9602752"
       y="43.192165"
       rx="2.7716539"
       ry="1.8874356" />
    <rect
       style="fill:#dfdfdf;fill-opacity:1;stroke:none;stroke-width:21.3723259;stroke-miterlimit:4;stroke-dasharray:none;stroke-opacity:1"
       id="rect815"
       width="195.33156"
       height="252.782"
       x="3.2714021"
       y="39.305187"
       rx="2.7716539"
       ry="1.8874354" />
    <path
       style="fill:#262626;stroke-width:0.14681798;fill-opacity:1"
       id="path2"
       d="m 125.72196,125.51797 -46.977379,13.87281 a 4.698176,4.698176 0 0 0 -3.290192,4.47942 v 38.3797 a 20.407701,20.407701 0 0 0 -4.698177,-0.57554 c -7.781341,0 -14.094517,4.20781 -14.094517,9.39636 0,5.18855 6.313176,9.39636 14.094517,9.39636 7.781356,0 14.094531,-4.20781 14.094531,-9.39636 V 156.7623 l 37.585417,-11.01135 v 27.10408 a 20.319612,20.319612 0 0 0 -4.69816,-0.577 c -7.78137,0 -14.09455,4.20779 -14.09455,9.39633 0,5.18856 6.31318,9.39636 14.09455,9.39636 7.78134,0 14.09451,-4.20633 14.09451,-9.39636 v -51.67992 a 4.698176,4.698176 0 0 0 -6.11055,-4.47647 z"
       inkscape:connector-curvature="0" />
    <circle
       style="fill:none;fill-opacity:1;stroke:#262626;stroke-width:6;stroke-miterlimit:4;stroke-dasharray:none;stroke-opacity:1"
       id="path841"
       cx="100.43265"
       cy="163.16502"
       r="73.523605" />
  </g>
</svg>
